{
  "count": 1702,
  "next": "https://ll.thespacedevs.com/2.0.0/launch/previous/?limit=10&offset=10",
  "previous": null,
  "results": [
        {
          "id": "f1a8d62e-709d-4e89-ade9-a8779492c7a9",
          "url": "https://ll.thespacedevs.com/2.2.0/launch/f1a8d62e-709d-4e89-ade9-a8779492c7a9/",
          "launch_library_id": 2044,
          "slug": "antares-230-cygnus-crs-2-ng-15-ss-katherine-johnso",
          "name": "Antares 230+ | Cygnus CRS-2 NG-15 (S.S. Katherine Johnson)",
          "status": {
              "id": 3,
              "name": "Success"
          },
          "net": "2021-02-20T17:36:00Z",
          "window_end": "2021-02-20T17:41:00Z",
          "window_start": "2021-02-20T17:36:00Z",
          "inhold": false,
          "tbdtime": true,
          "tbddate": true,
          "probability": 75,
          "holdreason": "",
          "failreason": "",
          "hashtag": null,
          "launch_service_provider": {
              "id": 257,
              "url": "https://ll.thespacedevs.com/2.2.0/agencies/257/",
              "name": "Northrop Grumman Innovation Systems",
              "type": "Commercial"
          },
          "rocket": {
              "id": 2677,
              "configuration": {
                  "id": 210,
                  "launch_library_id": 241,
                  "url": "https://ll.thespacedevs.com/2.2.0/config/launcher/210/",
                  "name": "Antares 230+",
                  "family": "Antares",
                  "full_name": "Antares 230+",
                  "variant": "230+"
              }
          },
          "mission": {
              "id": 1236,
              "launch_library_id": null,
              "name": "Cygnus CRS-2 NG-15 (S.S. Katherine Johnson)",
              "description": "This is the 15th planned flight of the Orbital ATK's uncrewed resupply spacecraft Cygnus and its 14th flight to the International Space Station under the Commercial Resupply Services contract with NASA. This Cygnus spacecraft carries the name of American mathematician Katherine Johnson, whose calculations of orbital mechanics as a NASA employee were critical to the success of the first and subsequent U.S. crewed spaceflights.",
              "launch_designator": null,
              "type": "Resupply",
              "orbit": {
                  "id": 8,
                  "name": "Low Earth Orbit",
                  "abbrev": "LEO"
              }
          },
          "pad": {
              "id": 76,
              "url": "https://ll.thespacedevs.com/2.2.0/pad/76/",
              "agency_id": 44,
              "name": "Launch Area 0 A",
              "info_url": null,
              "wiki_url": "",
              "map_url": "http://maps.google.com/maps?q=37.8337+N,+75.4881+W",
              "latitude": "37.8337",
              "longitude": "-75.4881",
              "location": {
                  "id": 21,
                  "url": "https://ll.thespacedevs.com/2.2.0/location/21/",
                  "name": "Wallops Island, Virginia, USA",
                  "country_code": "USA",
                  "map_image": "https://spacelaunchnow-prod-east.nyc3.digitaloceanspaces.com/media/launch_images/location_21_20200803142423.jpg",
                  "total_launch_count": 21,
                  "total_landing_count": 0
              },
              "map_image": "https://spacelaunchnow-prod-east.nyc3.digitaloceanspaces.com/media/launch_images/pad_76_20200803143538.jpg",
              "total_launch_count": 14
          },
          "webcast_live": true,
          "image": "https://spacelaunchnow-prod-east.nyc3.digitaloceanspaces.com/media/launcher_images/antares2520230252b_image_20191102024633.jpeg",
          "infographic": "https://spacelaunchnow-prod-east.nyc3.digitaloceanspaces.com/media/launch_images/antares2520230_infographic_20210219161454.jpeg",
          "program": [
              {
                  "id": 11,
                  "url": "https://ll.thespacedevs.com/2.2.0/program/11/",
                  "name": "Commercial Resupply Services",
                  "description": "Commercial Resupply Services (CRS) are a series of flights awarded by NASA for the delivery of cargo and supplies to the International Space Station.The first CRS contracts were signed in 2008 and awarded $1.6 billion to SpaceX for twelve cargo Dragon and $1.9 billion to Orbital Sciences for eight Cygnus flights, covering deliveries to 2016. The Falcon 9 and Antares rockets were also developed under the CRS program to deliver cargo spacecraft to the ISS.",
                  "agencies": [
                      {
                          "id": 44,
                          "url": "https://ll.thespacedevs.com/2.2.0/agencies/44/",
                          "name": "National Aeronautics and Space Administration",
                          "type": "Government"
                      },
                      {
                          "id": 257,
                          "url": "https://ll.thespacedevs.com/2.2.0/agencies/257/",
                          "name": "Northrop Grumman Innovation Systems",
                          "type": "Commercial"
                      },
                      {
                          "id": 1020,
                          "url": "https://ll.thespacedevs.com/2.2.0/agencies/1020/",
                          "name": "Sierra Nevada Corporation",
                          "type": "Commercial"
                      },
                      {
                          "id": 121,
                          "url": "https://ll.thespacedevs.com/2.2.0/agencies/121/",
                          "name": "SpaceX",
                          "type": "Commercial"
                      }
                  ],
                  "image_url": "https://spacelaunchnow-prod-east.nyc3.digitaloceanspaces.com/media/program_images/commercial2520_program_20201129212219.png",
                  "start_date": "2008-12-23T00:00:00Z",
                  "end_date": null,
                  "info_url": null,
                  "wiki_url": "https://en.wikipedia.org/wiki/Commercial_Resupply_Services#Commercial_Resupply_Services"
              }
          ]
      },
      {
          "id": "985f1cc1-82c1-4a89-b2cc-e9dc91829a0e",
          "url": "https://ll.thespacedevs.com/2.2.0/launch/985f1cc1-82c1-4a89-b2cc-e9dc91829a0e/",
          "launch_library_id": null,
          "slug": "falcon-9-block-5-starlink-19",
          "name": "Falcon 9 Block 5 | Starlink 19",
          "status": {
              "id": 3,
              "name": "Success"
          },
          "net": "2021-02-16T03:59:00Z",
          "window_end": "2021-02-16T03:59:00Z",
          "window_start": "2021-02-16T03:59:00Z",
          "inhold": false,
          "tbdtime": false,
          "tbddate": false,
          "probability": 60,
          "holdreason": "",
          "failreason": "",
          "hashtag": null,
          "launch_service_provider": {
              "id": 121,
              "url": "https://ll.thespacedevs.com/2.2.0/agencies/121/",
              "name": "SpaceX",
              "type": "Commercial"
          },
          "rocket": {
              "id": 2826,
              "configuration": {
                  "id": 164,
                  "launch_library_id": 188,
                  "url": "https://ll.thespacedevs.com/2.2.0/config/launcher/164/",
                  "name": "Falcon 9 Block 5",
                  "family": "Falcon",
                  "full_name": "Falcon 9 Block 5",
                  "variant": "Block 5"
              }
          },
          "mission": {
              "id": 1233,
              "launch_library_id": null,
              "name": "Starlink 19",
              "description": "A batch of 60 satellites for Starlink mega-constellation - SpaceX's project for space-based Internet communication system.",
              "launch_designator": null,
              "type": "Communications",
              "orbit": {
                  "id": 8,
                  "name": "Low Earth Orbit",
                  "abbrev": "LEO"
              }
          },
          "pad": {
              "id": 80,
              "url": "https://ll.thespacedevs.com/2.2.0/pad/80/",
              "agency_id": 121,
              "name": "Space Launch Complex 40",
              "info_url": null,
              "wiki_url": "https://en.wikipedia.org/wiki/Cape_Canaveral_Air_Force_Station_Space_Launch_Complex_40",
              "map_url": "http://maps.google.com/maps?q=28.56194122,-80.57735736",
              "latitude": "28.56194122",
              "longitude": "-80.57735736",
              "location": {
                  "id": 12,
                  "url": "https://ll.thespacedevs.com/2.2.0/location/12/",
                  "name": "Cape Canaveral, FL, USA",
                  "country_code": "USA",
                  "map_image": "https://spacelaunchnow-prod-east.nyc3.digitaloceanspaces.com/media/launch_images/location_12_20200803142519.jpg",
                  "total_launch_count": 212,
                  "total_landing_count": 20
              },
              "map_image": "https://spacelaunchnow-prod-east.nyc3.digitaloceanspaces.com/media/launch_images/pad_80_20200803143323.jpg",
              "total_launch_count": 67
          },
          "webcast_live": true,
          "image": "https://spacelaunchnow-prod-east.nyc3.digitaloceanspaces.com/media/launch_images/falcon2520925_image_20210202223956.png",
          "infographic": null,
          "program": []
      },
      {
          "id": "19407719-d66c-492d-9288-e5e6ddbadbd6",
          "url": "https://ll.thespacedevs.com/2.2.0/launch/19407719-d66c-492d-9288-e5e6ddbadbd6/",
          "launch_library_id": 2026,
          "slug": "soyuz-21a-progress-ms-16-77p",
          "name": "Soyuz 2.1a | Progress MS-16 (77P)",
          "status": {
              "id": 3,
              "name": "Success"
          },
          "net": "2021-02-15T04:45:06Z",
          "window_end": "2021-02-15T04:45:06Z",
          "window_start": "2021-02-15T04:45:06Z",
          "inhold": false,
          "tbdtime": true,
          "tbddate": true,
          "probability": -1,
          "holdreason": "",
          "failreason": "",
          "hashtag": null,
          "launch_service_provider": {
              "id": 63,
              "url": "https://ll.thespacedevs.com/2.2.0/agencies/63/",
              "name": "Russian Federal Space Agency (ROSCOSMOS)",
              "type": "Government"
          },
          "rocket": {
              "id": 2613,
              "configuration": {
                  "id": 24,
                  "launch_library_id": 49,
                  "url": "https://ll.thespacedevs.com/2.2.0/config/launcher/24/",
                  "name": "Soyuz 2.1a",
                  "family": "Soyuz",
                  "full_name": "Soyuz 2.1a",
                  "variant": ""
              }
          },
          "mission": {
              "id": 1213,
              "launch_library_id": null,
              "name": "Progress MS-16",
              "description": "The Progress MS-16 Spacecraft will resupply the International Space Station.",
              "launch_designator": null,
              "type": "Resupply",
              "orbit": {
                  "id": 8,
                  "name": "Low Earth Orbit",
                  "abbrev": "LEO"
              }
          },
          "pad": {
              "id": 20,
              "url": "https://ll.thespacedevs.com/2.2.0/pad/20/",
              "agency_id": null,
              "name": "31/6",
              "info_url": null,
              "wiki_url": "",
              "map_url": "http://maps.google.com/maps?q=45.996+N,+63.564+E",
              "latitude": "45.996034",
              "longitude": "63.564003",
              "location": {
                  "id": 15,
                  "url": "https://ll.thespacedevs.com/2.2.0/location/15/",
                  "name": "Baikonur Cosmodrome, Republic of Kazakhstan",
                  "country_code": "KAZ",
                  "map_image": "https://spacelaunchnow-prod-east.nyc3.digitaloceanspaces.com/media/launch_images/location_15_20200803142517.jpg",
                  "total_launch_count": 467,
                  "total_landing_count": 0
              },
              "map_image": "https://spacelaunchnow-prod-east.nyc3.digitaloceanspaces.com/media/launch_images/pad_20_20200803143516.jpg",
              "total_launch_count": 77
          },
          "webcast_live": true,
          "image": "https://spacelaunchnow-prod-east.nyc3.digitaloceanspaces.com/media/launcher_images/soyuz_2.1a_image_20201013143850.jpg",
          "infographic": null,
          "program": [
              {
                  "id": 17,
                  "url": "https://ll.thespacedevs.com/2.2.0/program/17/",
                  "name": "International Space Station",
                  "description": "The International Space Station programme is tied together by a complex set of legal, political and financial agreements between the sixteen nations involved in the project, governing ownership of the various components, rights to crewing and utilization, and responsibilities for crew rotation and resupply of the International Space Station. It was conceived in 1984 by President Ronald Reagan, during the Space Station Freedom project as it was originally called.",
                  "agencies": [
                      {
                          "id": 16,
                          "url": "https://ll.thespacedevs.com/2.2.0/agencies/16/",
                          "name": "Canadian Space Agency",
                          "type": "Government"
                      },
                      {
                          "id": 27,
                          "url": "https://ll.thespacedevs.com/2.2.0/agencies/27/",
                          "name": "European Space Agency",
                          "type": "Multinational"
                      },
                      {
                          "id": 37,
                          "url": "https://ll.thespacedevs.com/2.2.0/agencies/37/",
                          "name": "Japan Aerospace Exploration Agency",
                          "type": "Government"
                      },
                      {
                          "id": 44,
                          "url": "https://ll.thespacedevs.com/2.2.0/agencies/44/",
                          "name": "National Aeronautics and Space Administration",
                          "type": "Government"
                      },
                      {
                          "id": 63,
                          "url": "https://ll.thespacedevs.com/2.2.0/agencies/63/",
                          "name": "Russian Federal Space Agency (ROSCOSMOS)",
                          "type": "Government"
                      }
                  ],
                  "image_url": "https://spacelaunchnow-prod-east.nyc3.digitaloceanspaces.com/media/program_images/international2_program_20201129184745.png",
                  "start_date": "1998-11-20T06:40:00Z",
                  "end_date": null,
                  "info_url": "https://www.nasa.gov/mission_pages/station/main/index.html",
                  "wiki_url": "https://en.wikipedia.org/wiki/International_Space_Station_programme"
              }
          ]
      },
      {
          "id": "dfd4f0e0-0ab4-494d-bd88-1b93b934b269",
          "url": "https://ll.thespacedevs.com/2.2.0/launch/dfd4f0e0-0ab4-494d-bd88-1b93b934b269/",
          "launch_library_id": null,
          "slug": "falcon-9-block-5-starlink-17",
          "name": "Falcon 9 Block 5 | Starlink 17",
          "status": {
              "id": 3,
              "name": "Success"
          },
          "net": "2021-03-04T08:24:00Z",
          "window_end": "2021-03-04T08:24:00Z",
          "window_start": "2021-03-04T08:24:00Z",
          "inhold": false,
          "tbdtime": false,
          "tbddate": false,
          "probability": 90,
          "holdreason": "",
          "failreason": "",
          "hashtag": null,
          "launch_service_provider": {
              "id": 121,
              "url": "https://ll.thespacedevs.com/2.2.0/agencies/121/",
              "name": "SpaceX",
              "type": "Commercial"
          },
          "rocket": {
              "id": 2820,
              "configuration": {
                  "id": 164,
                  "launch_library_id": 188,
                  "url": "https://ll.thespacedevs.com/2.2.0/config/launcher/164/",
                  "name": "Falcon 9 Block 5",
                  "family": "Falcon",
                  "full_name": "Falcon 9 Block 5",
                  "variant": "Block 5"
              }
          },
          "mission": {
              "id": 1229,
              "launch_library_id": null,
              "name": "Starlink 17",
              "description": "A batch of 60 satellites for Starlink mega-constellation - SpaceX's project for space-based Internet communication system.",
              "launch_designator": null,
              "type": "Communications",
              "orbit": {
                  "id": 8,
                  "name": "Low Earth Orbit",
                  "abbrev": "LEO"
              }
          },
          "pad": {
              "id": 87,
              "url": "https://ll.thespacedevs.com/2.2.0/pad/87/",
              "agency_id": null,
              "name": "Launch Complex 39A",
              "info_url": null,
              "wiki_url": "https://en.wikipedia.org/wiki/Kennedy_Space_Center_Launch_Complex_39#Launch_Pad_39A",
              "map_url": "http://maps.google.com/maps?q=28.608+N,+80.604+W",
              "latitude": "28.60822681",
              "longitude": "-80.60428186",
              "location": {
                  "id": 27,
                  "url": "https://ll.thespacedevs.com/2.2.0/location/27/",
                  "name": "Kennedy Space Center, FL, USA",
                  "country_code": "USA",
                  "map_image": "https://spacelaunchnow-prod-east.nyc3.digitaloceanspaces.com/media/launch_images/location_27_20200803142447.jpg",
                  "total_launch_count": 184,
                  "total_landing_count": 0
              },
              "map_image": "https://spacelaunchnow-prod-east.nyc3.digitaloceanspaces.com/media/launch_images/pad_87_20200803143537.jpg",
              "total_launch_count": 127
          },
          "webcast_live": true,
          "image": "https://spacelaunchnow-prod-east.nyc3.digitaloceanspaces.com/media/launch_images/falcon2520925_image_20210121062346.png",
          "infographic": "https://spacelaunchnow-prod-east.nyc3.digitaloceanspaces.com/media/launch_images/falcon2520925_infographic_20210304014808.jpeg",
          "program": []
      },
      {
          "id": "c0ac9a61-5aac-40d7-9919-3c29ea7d4172",
          "url": "https://ll.thespacedevs.com/2.2.0/launch/c0ac9a61-5aac-40d7-9919-3c29ea7d4172/",
          "launch_library_id": null,
          "slug": "starship-sn10-10-km-flight",
          "name": "Starship SN10 | 10 km Flight",
          "status": {
              "id": 3,
              "name": "Success"
          },
          "net": "2021-03-03T23:15:00Z",
          "window_end": "2021-03-04T00:00:00Z",
          "window_start": "2021-03-03T15:00:00Z",
          "inhold": false,
          "tbdtime": false,
          "tbddate": false,
          "probability": null,
          "holdreason": "",
          "failreason": "",
          "hashtag": null,
          "launch_service_provider": {
              "id": 121,
              "url": "https://ll.thespacedevs.com/2.2.0/agencies/121/",
              "name": "SpaceX",
              "type": "Commercial"
          },
          "rocket": {
              "id": 2832,
              "configuration": {
                  "id": 207,
                  "launch_library_id": null,
                  "url": "https://ll.thespacedevs.com/2.2.0/config/launcher/207/",
                  "name": "Starship Prototype",
                  "family": "Starship",
                  "full_name": "Starship Prototype",
                  "variant": "Prototype"
              }
          },
          "mission": {
              "id": 1239,
              "launch_library_id": null,
              "name": "10 km Flight",
              "description": "The SN10 Starship performed a test flight similar to SN8 and SN9. It launched up to an altitude of 10 km or 33,000 ft, did a belly flop maneuver followed by a controlled descent to the landing pad. Despite successfully performing the landing flip maneuver with its three Raptor engines, its vertical velocity was too high on landing, damaging its structure and resulting in an explosive destruction a few minutes after touchdown.",
              "launch_designator": null,
              "type": "Test Flight",
              "orbit": {
                  "id": 15,
                  "name": "Suborbital",
                  "abbrev": "Sub"
              }
          },
          "pad": {
              "id": 111,
              "url": "https://ll.thespacedevs.com/2.2.0/pad/111/",
              "agency_id": null,
              "name": "Launch Pad A",
              "info_url": null,
              "wiki_url": "https://en.wikipedia.org/wiki/SpaceX_South_Texas_Launch_Site",
              "map_url": "https://www.google.com/maps?q=25.997116+N,+97.15503099856647+W",
              "latitude": "25.997116",
              "longitude": "-97.15503099856647",
              "location": {
                  "id": 143,
                  "url": "https://ll.thespacedevs.com/2.2.0/location/143/",
                  "name": "SpaceX Space Launch Facility, TX, USA",
                  "country_code": "USA",
                  "map_image": "https://spacelaunchnow-prod-east.nyc3.digitaloceanspaces.com/media/launch_images/location_143_20200803142438.jpg",
                  "total_launch_count": 7,
                  "total_landing_count": 7
              },
              "map_image": "https://spacelaunchnow-prod-east.nyc3.digitaloceanspaces.com/media/launch_images/pad_111_20200803143229.jpg",
              "total_launch_count": 6
          },
          "webcast_live": true,
          "image": "https://spacelaunchnow-prod-east.nyc3.digitaloceanspaces.com/media/launch_images/starship2520sn_image_20210304160023.jpeg",
          "infographic": null,
          "program": [
              {
                  "id": 1,
                  "url": "https://ll.thespacedevs.com/2.2.0/program/1/",
                  "name": "SpaceX Starship",
                  "description": "The SpaceX Starship is a fully reusable super heavy-lift launch vehicle under development by SpaceX since 2012, as a self-funded private spaceflight project.  The second stage of the Starship — is designed as a long-duration cargo and passenger-carrying spacecraft. It is expected to be initially used without any booster stage at all, as part of an extensive development program to prove out launch-and-landing and iterate on a variety of design details, particularly with respect to the vehicle's atmospheric reentry.",
                  "agencies": [
                      {
                          "id": 121,
                          "url": "https://ll.thespacedevs.com/2.2.0/agencies/121/",
                          "name": "SpaceX",
                          "type": "Commercial"
                      }
                  ],
                  "image_url": "https://spacelaunchnow-prod-east.nyc3.digitaloceanspaces.com/media/program_images/spacex2520star_program_20201129204513.png",
                  "start_date": "2019-03-01T05:00:00Z",
                  "end_date": null,
                  "info_url": "https://www.spacex.com/vehicles/starship/",
                  "wiki_url": "https://en.wikipedia.org/wiki/SpaceX_Starship"
              }
          ]
      }
  ]
}