{
  "count": 178,
  "next": "https://ll.thespacedevs.com/2.0.0/launch/upcoming/?limit=10&offset=10",
  "previous": null,
  "results": [
    {
      "id": "dfd4f0e0-0ab4-494d-bd88-1b93b934b269",
      "url": "https://ll.thespacedevs.com/2.2.0/launch/dfd4f0e0-0ab4-494d-bd88-1b93b934b269/",
      "launch_library_id": null,
      "slug": "falcon-9-block-5-starlink-17",
      "name": "Falcon 9 Block 5 | Starlink 17",
      "status": {
          "id": 3,
          "name": "Success"
      },
      "net": "2021-03-04T08:24:00Z",
      "window_end": "2021-03-04T08:24:00Z",
      "window_start": "2021-03-04T08:24:00Z",
      "inhold": false,
      "tbdtime": false,
      "tbddate": false,
      "probability": 90,
      "holdreason": "",
      "failreason": "",
      "hashtag": null,
      "launch_service_provider": {
          "id": 121,
          "url": "https://ll.thespacedevs.com/2.2.0/agencies/121/",
          "name": "SpaceX",
          "type": "Commercial"
      },
      "rocket": {
          "id": 2820,
          "configuration": {
              "id": 164,
              "launch_library_id": 188,
              "url": "https://ll.thespacedevs.com/2.2.0/config/launcher/164/",
              "name": "Falcon 9 Block 5",
              "family": "Falcon",
              "full_name": "Falcon 9 Block 5",
              "variant": "Block 5"
          }
      },
      "mission": {
          "id": 1229,
          "launch_library_id": null,
          "name": "Starlink 17",
          "description": "A batch of 60 satellites for Starlink mega-constellation - SpaceX's project for space-based Internet communication system.",
          "launch_designator": null,
          "type": "Communications",
          "orbit": {
              "id": 8,
              "name": "Low Earth Orbit",
              "abbrev": "LEO"
          }
      },
      "pad": {
          "id": 87,
          "url": "https://ll.thespacedevs.com/2.2.0/pad/87/",
          "agency_id": null,
          "name": "Launch Complex 39A",
          "info_url": null,
          "wiki_url": "https://en.wikipedia.org/wiki/Kennedy_Space_Center_Launch_Complex_39#Launch_Pad_39A",
          "map_url": "http://maps.google.com/maps?q=28.608+N,+80.604+W",
          "latitude": "28.60822681",
          "longitude": "-80.60428186",
          "location": {
              "id": 27,
              "url": "https://ll.thespacedevs.com/2.2.0/location/27/",
              "name": "Kennedy Space Center, FL, USA",
              "country_code": "USA",
              "map_image": "https://spacelaunchnow-prod-east.nyc3.digitaloceanspaces.com/media/launch_images/location_27_20200803142447.jpg",
              "total_launch_count": 184,
              "total_landing_count": 0
          },
          "map_image": "https://spacelaunchnow-prod-east.nyc3.digitaloceanspaces.com/media/launch_images/pad_87_20200803143537.jpg",
          "total_launch_count": 127
      },
      "webcast_live": true,
      "image": "https://spacelaunchnow-prod-east.nyc3.digitaloceanspaces.com/media/launch_images/falcon2520925_image_20210121062346.png",
      "infographic": "https://spacelaunchnow-prod-east.nyc3.digitaloceanspaces.com/media/launch_images/falcon2520925_infographic_20210304014808.jpeg",
      "program": []
  },
  {
      "id": "134eb787-244e-4131-8b03-c9fbd0a11efc",
      "url": "https://ll.thespacedevs.com/2.2.0/launch/134eb787-244e-4131-8b03-c9fbd0a11efc/",
      "launch_library_id": null,
      "slug": "falcon-9-block-5-starlink-20",
      "name": "Falcon 9 Block 5 | Starlink 20",
      "status": {
          "id": 2,
          "name": "TBD"
      },
      "net": "2021-03-08T03:41:00Z",
      "window_end": "2021-03-08T03:41:00Z",
      "window_start": "2021-03-08T03:41:00Z",
      "inhold": false,
      "tbdtime": false,
      "tbddate": false,
      "probability": null,
      "holdreason": "",
      "failreason": "",
      "hashtag": null,
      "launch_service_provider": {
          "id": 121,
          "url": "https://ll.thespacedevs.com/2.2.0/agencies/121/",
          "name": "SpaceX",
          "type": "Commercial"
      },
      "rocket": {
          "id": 2833,
          "configuration": {
              "id": 164,
              "launch_library_id": 188,
              "url": "https://ll.thespacedevs.com/2.2.0/config/launcher/164/",
              "name": "Falcon 9 Block 5",
              "family": "Falcon",
              "full_name": "Falcon 9 Block 5",
              "variant": "Block 5"
          }
      },
      "mission": {
          "id": 1240,
          "launch_library_id": null,
          "name": "Starlink 20",
          "description": "A batch of 60 satellites for Starlink mega-constellation - SpaceX's project for space-based Internet communication system.",
          "launch_designator": null,
          "type": "Communications",
          "orbit": {
              "id": 8,
              "name": "Low Earth Orbit",
              "abbrev": "LEO"
          }
      },
      "pad": {
          "id": 80,
          "url": "https://ll.thespacedevs.com/2.2.0/pad/80/",
          "agency_id": 121,
          "name": "Space Launch Complex 40",
          "info_url": null,
          "wiki_url": "https://en.wikipedia.org/wiki/Cape_Canaveral_Air_Force_Station_Space_Launch_Complex_40",
          "map_url": "http://maps.google.com/maps?q=28.56194122,-80.57735736",
          "latitude": "28.56194122",
          "longitude": "-80.57735736",
          "location": {
              "id": 12,
              "url": "https://ll.thespacedevs.com/2.2.0/location/12/",
              "name": "Cape Canaveral, FL, USA",
              "country_code": "USA",
              "map_image": "https://spacelaunchnow-prod-east.nyc3.digitaloceanspaces.com/media/launch_images/location_12_20200803142519.jpg",
              "total_launch_count": 212,
              "total_landing_count": 20
          },
          "map_image": "https://spacelaunchnow-prod-east.nyc3.digitaloceanspaces.com/media/launch_images/pad_80_20200803143323.jpg",
          "total_launch_count": 67
      },
      "webcast_live": false,
      "image": "https://spacelaunchnow-prod-east.nyc3.digitaloceanspaces.com/media/launch_images/falcon2520925_image_20210218213404.png",
      "infographic": null,
      "program": []
  },
  {
      "id": "bb2a5291-0aef-4c2a-8e29-93362d256fea",
      "url": "https://ll.thespacedevs.com/2.2.0/launch/bb2a5291-0aef-4c2a-8e29-93362d256fea/",
      "launch_library_id": 1684,
      "slug": "firefly-alpha-maiden-flight",
      "name": "Firefly Alpha | Maiden Flight",
      "status": {
          "id": 2,
          "name": "TBD"
      },
      "net": "2021-03-14T00:00:00Z",
      "window_end": "2021-03-14T00:00:00Z",
      "window_start": "2021-03-14T00:00:00Z",
      "inhold": false,
      "tbdtime": true,
      "tbddate": true,
      "probability": -1,
      "holdreason": "",
      "failreason": "",
      "hashtag": null,
      "launch_service_provider": {
          "id": 265,
          "url": "https://ll.thespacedevs.com/2.2.0/agencies/265/",
          "name": "Firefly Aerospace",
          "type": "Commercial"
      },
      "rocket": {
          "id": 2210,
          "configuration": {
              "id": 179,
              "launch_library_id": 216,
              "url": "https://ll.thespacedevs.com/2.2.0/config/launcher/179/",
              "name": "Firefly Alpha",
              "family": "Firefly Alpha",
              "full_name": "Firefly Alpha",
              "variant": ""
          }
      },
      "mission": {
          "id": 966,
          "launch_library_id": 1180,
          "name": "Maiden Flight",
          "description": "First flight of the new Firefly Alpha small sat launcher developed by Firefly Aerospace.",
          "launch_designator": null,
          "type": "Test Flight",
          "orbit": {
              "id": 8,
              "name": "Low Earth Orbit",
              "abbrev": "LEO"
          }
      },
      "pad": {
          "id": 39,
          "url": "https://ll.thespacedevs.com/2.2.0/pad/39/",
          "agency_id": null,
          "name": "Space Launch Complex 2W",
          "info_url": null,
          "wiki_url": "",
          "map_url": "http://maps.google.com/maps?q=34.7556+N,+120.6224+W",
          "latitude": "34.7556",
          "longitude": "-120.6224",
          "location": {
              "id": 11,
              "url": "https://ll.thespacedevs.com/2.2.0/location/11/",
              "name": "Vandenberg AFB, CA, USA",
              "country_code": "USA",
              "map_image": "https://spacelaunchnow-prod-east.nyc3.digitaloceanspaces.com/media/launch_images/location_11_20200803142416.jpg",
              "total_launch_count": 83,
              "total_landing_count": 3
          },
          "map_image": "https://spacelaunchnow-prod-east.nyc3.digitaloceanspaces.com/media/launch_images/pad_39_20200803143542.jpg",
          "total_launch_count": 18
      },
      "webcast_live": false,
      "image": "https://spacelaunchnow-prod-east.nyc3.digitaloceanspaces.com/media/launcher_images/firefly_alpha_image_20200817170720.jpg",
      "infographic": null,
      "program": []
    }
  ]
}